Tidy Machine Learning
…
[perhaps here I can add a brief intro into the tools we'll be using (i.e. list-columns, purrr, and caret)]

As a running example, we'll look at data from the US McDonald's menu to see if we can predict an item's category (e.g. `Breakfast`, `Desserts`, `Snacks & Sides`) from its nutritional content (e.g. `Calories`, `Total Fat`, `Sodium`) [2]:

# load libraries
library(caret)
library(tidyverse)

# load data, removing non-nutritional columns
menu <- read_csv('menu.csv') %>%
  select(-Item, -`Serving Size`) 
menu

# A tibble: 260 x 22
   Category Calories `Calories from ~ `Total Fat` `Total Fat (% D~ `Saturated Fat` `Saturated Fat ~ `Trans Fat` Cholesterol
   <chr>       <dbl>            <dbl>       <dbl>            <dbl>           <dbl>            <dbl>       <dbl>       <dbl>
 1 Breakfa~      300              120          13               20               5               25           0         260
 2 Breakfa~      250               70           8               12               3               15           0          25
 3 Breakfa~      370              200          23               35               8               42           0          45
 4 Breakfa~      450              250          28               43              10               52           0         285
 5 Breakfa~      400              210          23               35               8               42           0          50
 6 Breakfa~      430              210          23               36               9               46           1         300
 7 Breakfa~      460              230          26               40              13               65           0         250
 8 Breakfa~      520              270          30               47              14               68           0         250
 9 Breakfa~      410              180          20               32              11               56           0          35
10 Breakfa~      470              220          25               38              12               59           0          35
# ... with 250 more rows, and 13 more variables: `Cholesterol (% Daily Value)` <dbl>, Sodium <dbl>, `Sodium (% Daily
#   Value)` <dbl>, Carbohydrates <dbl>, `Carbohydrates (% Daily Value)` <dbl>, `Dietary Fiber` <dbl>, `Dietary Fiber (% Daily
#   Value)` <dbl>, Sugars <dbl>, Protein <dbl>, `Vitamin A (% Daily Value)` <dbl>, `Vitamin C (% Daily Value)` <dbl>, `Calcium
#   (% Daily Value)` <dbl>, `Iron (% Daily Value)` <dbl>
…
Next, we combine our models and our transformed data into a single data-frame. Recall we want to run each model + data-transformation combination. We can do this by creating a cartesian product (also known as a cross-join) of the two desired columns. Luckily for us, tidyr provides this functionality via the crossing() function:

# cross-join original data with models
menu <- menu %>% 
  crossing(model_list) %>% 
  arrange(model, power)
menu

  # A tibble: 24 x 7
   index data                power trns_data           label       model           model_func
   <int> <list>              <dbl> <list>              <list>      <chr>           <list>    
 1     1 <tibble [260 x 22]>   0.5 <tibble [260 x 21]> <chr [260]> boosted_log_reg <fn>      
 2     2 <tibble [260 x 22]>   1   <tibble [260 x 21]> <chr [260]> boosted_log_reg <fn>      
 3     3 <tibble [260 x 22]>   2   <tibble [260 x 21]> <chr [260]> boosted_log_reg <fn>      
 4     4 <tibble [260 x 22]>   3   <tibble [260 x 21]> <chr [260]> boosted_log_reg <fn>      
 5     1 <tibble [260 x 22]>   0.5 <tibble [260 x 21]> <chr [260]> decision_tree   <fn>      
 6     2 <tibble [260 x 22]>   1   <tibble [260 x 21]> <chr [260]> decision_tree   <fn>      
 7     3 <tibble [260 x 22]>   2   <tibble [260 x 21]> <chr [260]> decision_tree   <fn>      
 8     4 <tibble [260 x 22]>   3   <tibble [260 x 21]> <chr [260]> decision_tree   <fn>      
 9     1 <tibble [260 x 22]>   0.5 <tibble [260 x 21]> <chr [260]> knn             <fn>      
10     2 <tibble [260 x 22]>   1   <tibble [260 x 21]> <chr [260]> knn             <fn>      
# ... with 14 more row

	All Together Now

Now that we've created all unique model + data-transformation combinations, we can solve the models.
To do so, we'll once again take advantage of purrr's map capailities. In this case, we'd like to create a new nest column by invoking a function, so we'll use invoke_map</:

# evaluate models
menu <- menu %>% 
  mutate(
    params = map2(transformed_data, label, ~ list(data = .x, label = .y)),
    model_fit = invoke_map(model_func, params)
  ) 
menu

  # A tibble: 24 x 9
   index data                power trns_data           label       model           model_func params     modelFits  
   <int> <list>              <dbl> <list>              <list>      <chr>           <list>     <list>     <list>     
 1     1 <tibble [260 x 22]>   0.5 <tibble [260 x 21]> <chr [260]> svm             <fn>       <list [2]> <S3: train>
 2     2 <tibble [260 x 22]>   1   <tibble [260 x 21]> <chr [260]> random_forest   <fn>       <list [2]> <S3: train>
 3     1 <tibble [260 x 22]>   0.5 <tibble [260 x 21]> <chr [260]> boosted_log_reg <fn>       <list [2]> <S3: train>
 4     1 <tibble [260 x 22]>   0.5 <tibble [260 x 21]> <chr [260]> random_forest   <fn>       <list [2]> <S3: train>
 5     4 <tibble [260 x 22]>   3   <tibble [260 x 21]> <chr [260]> boosted_log_reg <fn>       <list [2]> <S3: train>
 6     2 <tibble [260 x 22]>   1   <tibble [260 x 21]> <chr [260]> boosted_log_reg <fn>       <list [2]> <S3: train>
 7     3 <tibble [260 x 22]>   2   <tibble [260 x 21]> <chr [260]> boosted_log_reg <fn>       <list [2]> <S3: train>
 8     3 <tibble [260 x 22]>   2   <tibble [260 x 21]> <chr [260]> random_forest   <fn>       <list [2]> <S3: train>
 9     4 <tibble [260 x 22]>   3   <tibble [260 x 21]> <chr [260]> random_forest   <fn>       <list [2]> <S3: train>
10     2 <tibble [260 x 22]>   1   <tibble [260 x 21]> <chr [260]> svm             <fn>       <list [2]> <S3: train>
# ... with 14 more rows

Great, so now we have our data all together, and we've fit our models. We have everything that we need to easily identify the best models, now we just need to extract the results. Once again, we take advantage of caret's consistent API and map a simple function across our model_list:

# extract results for each model
trained_models <- menu %>% 
  mutate(
    accuracy = map_dbl(model_fit, ~max(.x$results$Accuracy)),
    accuracySD = map_dbl(model_fit, ~max(.x$results$AccuracySD)),
  ) %>% 
  arrange(desc(accuracy))

trained_models %>% 
  select(power, model, accuracy)

  # A tibble: 24 x 11
   index data              power trns_data          label       model         model_func params    modelFits  accuracy accuracySD
   <int> <list>            <dbl> <list>             <list>      <chr>         <list>     <list>    <list>        <dbl>      <dbl>
 1     1 <tibble [260 x 2~   0.5 <tibble [260 x 21~ <chr [260]> svm           <fn>       <list [2~ <S3: trai~    0.828     0.0545
 2     2 <tibble [260 x 2~   1   <tibble [260 x 21~ <chr [260]> random_forest <fn>       <list [2~ <S3: trai~    0.822     0.0506
 3     1 <tibble [260 x 2~   0.5 <tibble [260 x 21~ <chr [260]> boosted_log_~ <fn>       <list [2~ <S3: trai~    0.821     0.0544
 4     1 <tibble [260 x 2~   0.5 <tibble [260 x 21~ <chr [260]> random_forest <fn>       <list [2~ <S3: trai~    0.820     0.0376
 5     4 <tibble [260 x 2~   3   <tibble [260 x 21~ <chr [260]> boosted_log_~ <fn>       <list [2~ <S3: trai~    0.816     0.0534
 6     2 <tibble [260 x 2~   1   <tibble [260 x 21~ <chr [260]> boosted_log_~ <fn>       <list [2~ <S3: trai~    0.815     0.0437
 7     3 <tibble [260 x 2~   2   <tibble [260 x 21~ <chr [260]> boosted_log_~ <fn>       <list [2~ <S3: trai~    0.815     0.0490
 8     3 <tibble [260 x 2~   2   <tibble [260 x 21~ <chr [260]> random_forest <fn>       <list [2~ <S3: trai~    0.813     0.0486
 9     4 <tibble [260 x 2~   3   <tibble [260 x 21~ <chr [260]> random_forest <fn>       <list [2~ <S3: trai~    0.805     0.0393
10     2 <tibble [260 x 2~   1   <tibble [260 x 21~ <chr [260]> svm           <fn>       <list [2~ <S3: trai~    0.766     0.112 
# ... with 14 more rows
…
